{
  "collectionName": "components_contact_number_contact_numbers",
  "info": {
    "name": "contactNumbers",
    "icon": "address-book",
    "description": ""
  },
  "options": {},
  "attributes": {
    "contactNumber": {
      "type": "string"
    },
    "active": {
      "type": "boolean"
    }
  }
}
